<?xml version="1.0" encoding="UTF-8" standalone="no"?>
<!DOCTYPE svg PUBLIC "-//W3C//DTD SVG 1.1//EN"
 "http://www.w3.org/Graphics/SVG/1.1/DTD/svg11.dtd">
<!-- Generated by graphviz version 2.28.0 (20110507.0327)
 -->
<!-- Title: Games.Framework.Blackjack.Cards.BlackjackHand.IsBusted Pages: 1 -->
<svg width="528pt" height="38pt"
 viewBox="0.00 0.00 528.00 38.00" xmlns="http://www.w3.org/2000/svg" xmlns:xlink="http://www.w3.org/1999/xlink">
<g id="graph1" class="graph" transform="scale(1 1) rotate(0) translate(4 34)">
<title>Games.Framework.Blackjack.Cards.BlackjackHand.IsBusted</title>
<polygon fill="white" stroke="white" points="-4,5 -4,-34 525,-34 525,5 -4,5"/>
<!-- Node1 -->
<g id="node1" class="node"><title>Node1</title>
<polygon fill="#bfbfbf" stroke="black" points="0,-0 0,-30 152,-30 152,-0 0,-0"/>
<text text-anchor="start" x="8" y="-18" font-family="Helvetica,sans-Serif" font-size="10.00">Games.Framework.Blackjack.</text>
<text text-anchor="middle" x="76" y="-7" font-family="Helvetica,sans-Serif" font-size="10.00">Cards.BlackjackHand.IsBusted</text>
</g>
<!-- Node2 -->
<g id="node3" class="node"><title>Node2</title>
<a xlink:href="class_games_1_1_framework_1_1_blackjack_1_1_player_1_1_blackjack_player.html#a658d7d03db82c26f69c319b0afaa634d" target="_top" xlink:title="Compare and check if the player Wins the specified other. ">
<polygon fill="white" stroke="black" points="188,-0 188,-30 336,-30 336,-0 188,-0"/>
<text text-anchor="start" x="196" y="-18" font-family="Helvetica,sans-Serif" font-size="10.00">Games.Framework.Blackjack.</text>
<text text-anchor="middle" x="262" y="-7" font-family="Helvetica,sans-Serif" font-size="10.00">Player.BlackjackPlayer.Win</text>
</a>
</g>
<!-- Node1&#45;&gt;Node2 -->
<g id="edge2" class="edge"><title>Node1&#45;&gt;Node2</title>
<path fill="none" stroke="midnightblue" d="M162.156,-15C170.765,-15 179.454,-15 187.92,-15"/>
<polygon fill="midnightblue" stroke="midnightblue" points="162.105,-11.5001 152.105,-15 162.105,-18.5001 162.105,-11.5001"/>
</g>
<!-- Node3 -->
<g id="node5" class="node"><title>Node3</title>
<a xlink:href="class_games_1_1_framework_1_1_blackjack_1_1_blackjack_game.html#a78e5670f8c889bccc5f8115f7878f530" target="_top" xlink:title="Starts this game instance. ">
<polygon fill="white" stroke="black" points="372,-0 372,-30 520,-30 520,-0 372,-0"/>
<text text-anchor="start" x="380" y="-18" font-family="Helvetica,sans-Serif" font-size="10.00">Games.Framework.Blackjack.</text>
<text text-anchor="middle" x="446" y="-7" font-family="Helvetica,sans-Serif" font-size="10.00">BlackjackGame.Start</text>
</a>
</g>
<!-- Node2&#45;&gt;Node3 -->
<g id="edge4" class="edge"><title>Node2&#45;&gt;Node3</title>
<path fill="none" stroke="midnightblue" d="M346.516,-15C354.992,-15 363.556,-15 371.91,-15"/>
<polygon fill="midnightblue" stroke="midnightblue" points="346.24,-11.5001 336.24,-15 346.24,-18.5001 346.24,-11.5001"/>
</g>
</g>
</svg>
