<?xml version="1.0" encoding="UTF-8" standalone="no"?>
<!DOCTYPE svg PUBLIC "-//W3C//DTD SVG 1.1//EN"
 "http://www.w3.org/Graphics/SVG/1.1/DTD/svg11.dtd">
<!-- Generated by graphviz version 2.28.0 (20110507.0327)
 -->
<!-- Title: Games.Framework.Cards.PlayingCard.Turn Pages: 1 -->
<svg width="442pt" height="733pt"
 viewBox="0.00 0.00 442.00 733.00" xmlns="http://www.w3.org/2000/svg" xmlns:xlink="http://www.w3.org/1999/xlink">
<g id="graph1" class="graph" transform="scale(1 1) rotate(0) translate(4 729)">
<title>Games.Framework.Cards.PlayingCard.Turn</title>
<polygon fill="white" stroke="white" points="-4,5 -4,-729 439,-729 439,5 -4,5"/>
<!-- Node1 -->
<g id="node1" class="node"><title>Node1</title>
<polygon fill="#bfbfbf" stroke="black" points="0.5,-353 0.5,-383 163.5,-383 163.5,-353 0.5,-353"/>
<text text-anchor="start" x="8.5" y="-371" font-family="Helvetica,sans-Serif" font-size="10.00">Games.Framework.Cards.Playing</text>
<text text-anchor="middle" x="82" y="-360" font-family="Helvetica,sans-Serif" font-size="10.00">Card.Turn</text>
</g>
<!-- Node2 -->
<g id="node3" class="node"><title>Node2</title>
<a xlink:href="class_games_1_1_tests_1_1_blackjack_1_1_blackjack_hand_unit_test.html#afdd1d25a8ed45703a4a29cd6f76e2bbe" target="_top" xlink:title="Games.Tests.Blackjack.Blackjack\lHandUnitTest.TestIsBlackjackWithBlackjackHand">
<polygon fill="white" stroke="black" points="200.5,-695 200.5,-725 433.5,-725 433.5,-695 200.5,-695"/>
<text text-anchor="start" x="208.5" y="-713" font-family="Helvetica,sans-Serif" font-size="10.00">Games.Tests.Blackjack.Blackjack</text>
<text text-anchor="middle" x="317" y="-702" font-family="Helvetica,sans-Serif" font-size="10.00">HandUnitTest.TestIsBlackjackWithBlackjackHand</text>
</a>
</g>
<!-- Node1&#45;&gt;Node2 -->
<g id="edge2" class="edge"><title>Node1&#45;&gt;Node2</title>
<path fill="none" stroke="midnightblue" d="M84.4119,-393.212C89.2151,-453.544 110.115,-606.996 200,-685 204.434,-688.848 209.319,-692.149 214.499,-694.978"/>
<polygon fill="midnightblue" stroke="midnightblue" points="87.8912,-392.796 83.6893,-383.07 80.9088,-393.294 87.8912,-392.796"/>
</g>
<!-- Node3 -->
<g id="node5" class="node"><title>Node3</title>
<a xlink:href="class_games_1_1_tests_1_1_blackjack_1_1_blackjack_hand_unit_test.html#ab7b21b830f556c595ed7828b4d27a785" target="_top" xlink:title="Games.Tests.Blackjack.Blackjack\lHandUnitTest.TestIsNotBlackjackWith\lValidBlackjackHandWithUnturnedCard">
<polygon fill="white" stroke="black" points="225.5,-634.5 225.5,-675.5 408.5,-675.5 408.5,-634.5 225.5,-634.5"/>
<text text-anchor="start" x="233.5" y="-663.5" font-family="Helvetica,sans-Serif" font-size="10.00">Games.Tests.Blackjack.Blackjack</text>
<text text-anchor="start" x="233.5" y="-652.5" font-family="Helvetica,sans-Serif" font-size="10.00">HandUnitTest.TestIsNotBlackjackWith</text>
<text text-anchor="middle" x="317" y="-641.5" font-family="Helvetica,sans-Serif" font-size="10.00">ValidBlackjackHandWithUnturnedCard</text>
</a>
</g>
<!-- Node1&#45;&gt;Node3 -->
<g id="edge4" class="edge"><title>Node1&#45;&gt;Node3</title>
<path fill="none" stroke="midnightblue" d="M87.0626,-393.142C96.7625,-444.765 126.209,-563.057 200,-625 207.488,-631.286 216.137,-636.275 225.267,-640.231"/>
<polygon fill="midnightblue" stroke="midnightblue" points="90.4875,-392.411 85.2837,-383.182 83.5966,-393.642 90.4875,-392.411"/>
</g>
<!-- Node4 -->
<g id="node7" class="node"><title>Node4</title>
<a xlink:href="class_games_1_1_tests_1_1_blackjack_1_1_blackjack_hand_unit_test.html#afa57c57cf4e6117fccd04d5fbe026e4d" target="_top" xlink:title="Games.Tests.Blackjack.Blackjack\lHandUnitTest.TestIsNotBlackjackWith\lInvalidBlackjackHandWithCard10">
<polygon fill="white" stroke="black" points="226,-574.5 226,-615.5 408,-615.5 408,-574.5 226,-574.5"/>
<text text-anchor="start" x="234" y="-603.5" font-family="Helvetica,sans-Serif" font-size="10.00">Games.Tests.Blackjack.Blackjack</text>
<text text-anchor="start" x="234" y="-592.5" font-family="Helvetica,sans-Serif" font-size="10.00">HandUnitTest.TestIsNotBlackjackWith</text>
<text text-anchor="middle" x="317" y="-581.5" font-family="Helvetica,sans-Serif" font-size="10.00">InvalidBlackjackHandWithCard10</text>
</a>
</g>
<!-- Node1&#45;&gt;Node4 -->
<g id="edge6" class="edge"><title>Node1&#45;&gt;Node4</title>
<path fill="none" stroke="midnightblue" d="M90.8885,-392.902C105.467,-434.8 140.675,-519.192 200,-564 207.818,-569.905 216.675,-574.687 225.927,-578.558"/>
<polygon fill="midnightblue" stroke="midnightblue" points="94.1345,-391.575 87.6243,-383.216 87.501,-393.81 94.1345,-391.575"/>
</g>
<!-- Node5 -->
<g id="node9" class="node"><title>Node5</title>
<a xlink:href="class_games_1_1_tests_1_1_blackjack_1_1_blackjack_hand_unit_test.html#a77c60ffc76841983998b11062c5d1f40" target="_top" xlink:title="Games.Tests.Blackjack.Blackjack\lHandUnitTest.TestHandValueWithSoftHand">
<polygon fill="white" stroke="black" points="215,-525 215,-555 419,-555 419,-525 215,-525"/>
<text text-anchor="start" x="223" y="-543" font-family="Helvetica,sans-Serif" font-size="10.00">Games.Tests.Blackjack.Blackjack</text>
<text text-anchor="middle" x="317" y="-532" font-family="Helvetica,sans-Serif" font-size="10.00">HandUnitTest.TestHandValueWithSoftHand</text>
</a>
</g>
<!-- Node1&#45;&gt;Node5 -->
<g id="edge8" class="edge"><title>Node1&#45;&gt;Node5</title>
<path fill="none" stroke="midnightblue" d="M95.3863,-392.389C113.591,-425.621 150.812,-484.475 200,-515 206.214,-518.856 212.935,-522.124 219.904,-524.892"/>
<polygon fill="midnightblue" stroke="midnightblue" points="98.3563,-390.521 90.5578,-383.349 92.1818,-393.818 98.3563,-390.521"/>
</g>
<!-- Node6 -->
<g id="node11" class="node"><title>Node6</title>
<a xlink:href="class_games_1_1_tests_1_1_blackjack_1_1_blackjack_hand_unit_test.html#a9e972077f2d5d3b1704bc92293abb38e" target="_top" xlink:title="Games.Tests.Blackjack.Blackjack\lHandUnitTest.TestHandValueWithHardHand">
<polygon fill="white" stroke="black" points="213.5,-476 213.5,-506 420.5,-506 420.5,-476 213.5,-476"/>
<text text-anchor="start" x="221.5" y="-494" font-family="Helvetica,sans-Serif" font-size="10.00">Games.Tests.Blackjack.Blackjack</text>
<text text-anchor="middle" x="317" y="-483" font-family="Helvetica,sans-Serif" font-size="10.00">HandUnitTest.TestHandValueWithHardHand</text>
</a>
</g>
<!-- Node1&#45;&gt;Node6 -->
<g id="edge10" class="edge"><title>Node1&#45;&gt;Node6</title>
<path fill="none" stroke="midnightblue" d="M103.539,-390.723C125.273,-413.325 161.672,-447.26 200,-466 207.958,-469.891 216.516,-473.18 225.247,-475.96"/>
<polygon fill="midnightblue" stroke="midnightblue" points="105.892,-388.116 96.4839,-383.244 100.8,-392.92 105.892,-388.116"/>
</g>
<!-- Node7 -->
<g id="node13" class="node"><title>Node7</title>
<a xlink:href="class_games_1_1_tests_1_1_blackjack_1_1_blackjack_hand_unit_test.html#acb2e07c37c58c0d97b2b96139929051e" target="_top" xlink:title="Games.Tests.Blackjack.Blackjack\lHandUnitTest.TestHandValueWithBustedHand">
<polygon fill="white" stroke="black" points="208,-427 208,-457 426,-457 426,-427 208,-427"/>
<text text-anchor="start" x="216" y="-445" font-family="Helvetica,sans-Serif" font-size="10.00">Games.Tests.Blackjack.Blackjack</text>
<text text-anchor="middle" x="317" y="-434" font-family="Helvetica,sans-Serif" font-size="10.00">HandUnitTest.TestHandValueWithBustedHand</text>
</a>
</g>
<!-- Node1&#45;&gt;Node7 -->
<g id="edge12" class="edge"><title>Node1&#45;&gt;Node7</title>
<path fill="none" stroke="midnightblue" d="M123.799,-387.27C145.969,-397.181 174.08,-408.856 200,-417 211.792,-420.705 224.429,-424.047 236.867,-426.992"/>
<polygon fill="midnightblue" stroke="midnightblue" points="125.239,-384.079 114.685,-383.146 122.353,-390.457 125.239,-384.079"/>
</g>
<!-- Node8 -->
<g id="node15" class="node"><title>Node8</title>
<a xlink:href="class_games_1_1_tests_1_1_blackjack_1_1_blackjack_hand_unit_test.html#a296e9eb9e753412fe3d1a4874afcb8d2" target="_top" xlink:title="Games.Tests.Blackjack.Blackjack\lHandUnitTest.TestHandValueWithUnturnedHand">
<polygon fill="white" stroke="black" points="204,-378 204,-408 430,-408 430,-378 204,-378"/>
<text text-anchor="start" x="212" y="-396" font-family="Helvetica,sans-Serif" font-size="10.00">Games.Tests.Blackjack.Blackjack</text>
<text text-anchor="middle" x="317" y="-385" font-family="Helvetica,sans-Serif" font-size="10.00">HandUnitTest.TestHandValueWithUnturnedHand</text>
</a>
</g>
<!-- Node1&#45;&gt;Node8 -->
<g id="edge14" class="edge"><title>Node1&#45;&gt;Node8</title>
<path fill="none" stroke="midnightblue" d="M173.703,-377.732C183.586,-378.793 193.73,-379.881 203.83,-380.965"/>
<polygon fill="midnightblue" stroke="midnightblue" points="173.828,-374.225 163.512,-376.639 173.081,-381.186 173.828,-374.225"/>
</g>
<!-- Node9 -->
<g id="node17" class="node"><title>Node9</title>
<a xlink:href="class_games_1_1_tests_1_1_blackjack_1_1_blackjack_hand_unit_test.html#ac03268cc9abc31104937ee5e0b2f0bb6" target="_top" xlink:title="Games.Tests.Blackjack.Blackjack\lHandUnitTest.TestIsBustedWithBustedHand">
<polygon fill="white" stroke="black" points="212.5,-329 212.5,-359 421.5,-359 421.5,-329 212.5,-329"/>
<text text-anchor="start" x="220.5" y="-347" font-family="Helvetica,sans-Serif" font-size="10.00">Games.Tests.Blackjack.Blackjack</text>
<text text-anchor="middle" x="317" y="-336" font-family="Helvetica,sans-Serif" font-size="10.00">HandUnitTest.TestIsBustedWithBustedHand</text>
</a>
</g>
<!-- Node1&#45;&gt;Node9 -->
<g id="edge16" class="edge"><title>Node1&#45;&gt;Node9</title>
<path fill="none" stroke="midnightblue" d="M173.618,-358.666C186.352,-357.354 199.521,-355.998 212.472,-354.664"/>
<polygon fill="midnightblue" stroke="midnightblue" points="173.1,-355.201 163.512,-359.707 173.818,-362.164 173.1,-355.201"/>
</g>
<!-- Node10 -->
<g id="node19" class="node"><title>Node10</title>
<a xlink:href="class_games_1_1_tests_1_1_blackjack_1_1_blackjack_hand_unit_test.html#a925ead22aed27e2d6722194ef52bc016" target="_top" xlink:title="Games.Tests.Blackjack.Blackjack\lHandUnitTest.TestIsNotBustedWithBusted\lHandWithUnturnedCard">
<polygon fill="white" stroke="black" points="216.5,-268.5 216.5,-309.5 417.5,-309.5 417.5,-268.5 216.5,-268.5"/>
<text text-anchor="start" x="224.5" y="-297.5" font-family="Helvetica,sans-Serif" font-size="10.00">Games.Tests.Blackjack.Blackjack</text>
<text text-anchor="start" x="224.5" y="-286.5" font-family="Helvetica,sans-Serif" font-size="10.00">HandUnitTest.TestIsNotBustedWithBusted</text>
<text text-anchor="middle" x="317" y="-275.5" font-family="Helvetica,sans-Serif" font-size="10.00">HandWithUnturnedCard</text>
</a>
</g>
<!-- Node1&#45;&gt;Node10 -->
<g id="edge18" class="edge"><title>Node1&#45;&gt;Node10</title>
<path fill="none" stroke="midnightblue" d="M125.724,-348.93C147.67,-339.53 174.991,-328.433 200,-320 210.864,-316.337 222.414,-312.816 233.854,-309.547"/>
<polygon fill="midnightblue" stroke="midnightblue" points="124.15,-345.797 116.359,-352.977 126.927,-352.223 124.15,-345.797"/>
</g>
<!-- Node11 -->
<g id="node21" class="node"><title>Node11</title>
<a xlink:href="class_games_1_1_tests_1_1_blackjack_1_1_blackjack_hand_unit_test.html#aa370b67a6107d67a39d99032cf91eefa" target="_top" xlink:title="Games.Tests.Blackjack.Blackjack\lHandUnitTest.TestIsBelowIsFalseOnBustedHand">
<polygon fill="white" stroke="black" points="203,-219 203,-249 431,-249 431,-219 203,-219"/>
<text text-anchor="start" x="211" y="-237" font-family="Helvetica,sans-Serif" font-size="10.00">Games.Tests.Blackjack.Blackjack</text>
<text text-anchor="middle" x="317" y="-226" font-family="Helvetica,sans-Serif" font-size="10.00">HandUnitTest.TestIsBelowIsFalseOnBustedHand</text>
</a>
</g>
<!-- Node1&#45;&gt;Node11 -->
<g id="edge20" class="edge"><title>Node1&#45;&gt;Node11</title>
<path fill="none" stroke="midnightblue" d="M100.987,-345.06C121.987,-319.928 159.096,-280.354 200,-259 207.488,-255.091 215.552,-251.793 223.817,-249.01"/>
<polygon fill="midnightblue" stroke="midnightblue" points="98.1276,-343.028 94.5009,-352.983 103.544,-347.462 98.1276,-343.028"/>
</g>
<!-- Node12 -->
<g id="node23" class="node"><title>Node12</title>
<a xlink:href="class_games_1_1_tests_1_1_blackjack_1_1_blackjack_hand_unit_test.html#aa669157910815c68207e6817f8ccd61b" target="_top" xlink:title="Games.Tests.Blackjack.Blackjack\lHandUnitTest.TestIsBelowIsTrueOnRegularHand">
<polygon fill="white" stroke="black" points="204.5,-170 204.5,-200 429.5,-200 429.5,-170 204.5,-170"/>
<text text-anchor="start" x="212.5" y="-188" font-family="Helvetica,sans-Serif" font-size="10.00">Games.Tests.Blackjack.Blackjack</text>
<text text-anchor="middle" x="317" y="-177" font-family="Helvetica,sans-Serif" font-size="10.00">HandUnitTest.TestIsBelowIsTrueOnRegularHand</text>
</a>
</g>
<!-- Node1&#45;&gt;Node12 -->
<g id="edge22" class="edge"><title>Node1&#45;&gt;Node12</title>
<path fill="none" stroke="midnightblue" d="M93.8785,-343.875C111.098,-308.592 148.087,-243.483 200,-210 205.973,-206.148 212.443,-202.88 219.167,-200.108"/>
<polygon fill="midnightblue" stroke="midnightblue" points="90.6805,-342.451 89.5499,-352.985 97.003,-345.455 90.6805,-342.451"/>
</g>
<!-- Node13 -->
<g id="node25" class="node"><title>Node13</title>
<a xlink:href="class_games_1_1_tests_1_1_blackjack_1_1_player_1_1_dealer_blackjack_player_strategy_unit_test.html#a50e28f1fddb30eb558a9048d345f6e0b" target="_top" xlink:title="Games.Tests.Blackjack.Player.\lDealerBlackjackPlayerStrategyUnit\lTest.TestIfDealerHitWithHandLowerThan17">
<polygon fill="white" stroke="black" points="216.5,-109.5 216.5,-150.5 417.5,-150.5 417.5,-109.5 216.5,-109.5"/>
<text text-anchor="start" x="224.5" y="-138.5" font-family="Helvetica,sans-Serif" font-size="10.00">Games.Tests.Blackjack.Player.</text>
<text text-anchor="start" x="224.5" y="-127.5" font-family="Helvetica,sans-Serif" font-size="10.00">DealerBlackjackPlayerStrategyUnit</text>
<text text-anchor="middle" x="317" y="-116.5" font-family="Helvetica,sans-Serif" font-size="10.00">Test.TestIfDealerHitWithHandLowerThan17</text>
</a>
</g>
<!-- Node1&#45;&gt;Node13 -->
<g id="edge24" class="edge"><title>Node1&#45;&gt;Node13</title>
<path fill="none" stroke="midnightblue" d="M90.0858,-342.966C103.794,-299.193 138.179,-208.855 200,-161 205.11,-157.044 210.683,-153.592 216.533,-150.579"/>
<polygon fill="midnightblue" stroke="midnightblue" points="86.6581,-342.21 87.1127,-352.795 93.3583,-344.236 86.6581,-342.21"/>
</g>
<!-- Node14 -->
<g id="node27" class="node"><title>Node14</title>
<a xlink:href="class_games_1_1_tests_1_1_blackjack_1_1_player_1_1_dealer_blackjack_player_strategy_unit_test.html#aaef984c6a7e369e0fac9eac92231688c" target="_top" xlink:title="Games.Tests.Blackjack.Player.\lDealerBlackjackPlayerStrategyUnit\lTest.TestIfDealerStandWithHandHigherThan16">
<polygon fill="white" stroke="black" points="208.5,-49.5 208.5,-90.5 425.5,-90.5 425.5,-49.5 208.5,-49.5"/>
<text text-anchor="start" x="216.5" y="-78.5" font-family="Helvetica,sans-Serif" font-size="10.00">Games.Tests.Blackjack.Player.</text>
<text text-anchor="start" x="216.5" y="-67.5" font-family="Helvetica,sans-Serif" font-size="10.00">DealerBlackjackPlayerStrategyUnit</text>
<text text-anchor="middle" x="317" y="-56.5" font-family="Helvetica,sans-Serif" font-size="10.00">Test.TestIfDealerStandWithHandHigherThan16</text>
</a>
</g>
<!-- Node1&#45;&gt;Node14 -->
<g id="edge26" class="edge"><title>Node1&#45;&gt;Node14</title>
<path fill="none" stroke="midnightblue" d="M86.5353,-342.902C95.3901,-289.709 123.566,-165.184 200,-100 204.115,-96.4906 208.591,-93.3845 213.312,-90.6362"/>
<polygon fill="midnightblue" stroke="midnightblue" points="83.069,-342.415 84.9708,-352.837 89.9838,-343.504 83.069,-342.415"/>
</g>
<!-- Node15 -->
<g id="node29" class="node"><title>Node15</title>
<a xlink:href="class_games_1_1_tests_1_1_cards_1_1_playing_card_unit_test.html#ad30fe71abf10966352cabe3e4f541524" target="_top" xlink:title="Games.Tests.Cards.Playing\lCardUnitTest.TestIfIsTurnedAfterTurn">
<polygon fill="white" stroke="black" points="229.5,-0 229.5,-30 404.5,-30 404.5,-0 229.5,-0"/>
<text text-anchor="start" x="237.5" y="-18" font-family="Helvetica,sans-Serif" font-size="10.00">Games.Tests.Cards.Playing</text>
<text text-anchor="middle" x="317" y="-7" font-family="Helvetica,sans-Serif" font-size="10.00">CardUnitTest.TestIfIsTurnedAfterTurn</text>
</a>
</g>
<!-- Node1&#45;&gt;Node15 -->
<g id="edge28" class="edge"><title>Node1&#45;&gt;Node15</title>
<path fill="none" stroke="midnightblue" d="M84.0596,-342.754C88.0859,-280.962 107.399,-121.252 200,-40 208.439,-32.5948 218.543,-27.2096 229.219,-23.3198"/>
<polygon fill="midnightblue" stroke="midnightblue" points="80.5626,-342.604 83.4872,-352.787 87.5512,-343.003 80.5626,-342.604"/>
</g>
</g>
</svg>
