<?xml version="1.0" encoding="UTF-8" standalone="no"?>
<!DOCTYPE svg PUBLIC "-//W3C//DTD SVG 1.1//EN"
 "http://www.w3.org/Graphics/SVG/1.1/DTD/svg11.dtd">
<!-- Generated by graphviz version 2.28.0 (20110507.0327)
 -->
<!-- Title: Games.Framework.Blackjack.Player.DealerBlackjackPlayerStrategy Pages: 1 -->
<svg width="190pt" height="172pt"
 viewBox="0.00 0.00 190.00 172.00" xmlns="http://www.w3.org/2000/svg" xmlns:xlink="http://www.w3.org/1999/xlink">
<g id="graph1" class="graph" transform="scale(1 1) rotate(0) translate(4 168)">
<title>Games.Framework.Blackjack.Player.DealerBlackjackPlayerStrategy</title>
<polygon fill="white" stroke="white" points="-4,5 -4,-168 187,-168 187,5 -4,5"/>
<!-- Node1 -->
<g id="node1" class="node"><title>Node1</title>
<polygon fill="#bfbfbf" stroke="black" points="0,-1 0,-69 182,-69 182,-1 0,-1"/>
<text text-anchor="start" x="8" y="-57" font-family="Helvetica,sans-Serif" font-size="10.00">Games.Framework.Blackjack.</text>
<text text-anchor="middle" x="91" y="-46" font-family="Helvetica,sans-Serif" font-size="10.00">Player.DealerBlackjackPlayerStrategy</text>
<polyline fill="none" stroke="black" points="0,-39 182,-39 "/>
<text text-anchor="middle" x="91" y="-27" font-family="Helvetica,sans-Serif" font-size="10.00"> </text>
<polyline fill="none" stroke="black" points="0,-20 182,-20 "/>
<text text-anchor="start" x="8" y="-8" font-family="Helvetica,sans-Serif" font-size="10.00">+ Play()</text>
</g>
<!-- Node2 -->
<g id="node2" class="node"><title>Node2</title>
<a xlink:href="interface_games_1_1_framework_1_1_blackjack_1_1_player_1_1_i_blackjack_player_strategy.html" target="_top" xlink:title="Represents the generic interface for players strategies. ">
<polygon fill="white" stroke="black" points="28,-106.5 28,-163.5 154,-163.5 154,-106.5 28,-106.5"/>
<text text-anchor="middle" x="91" y="-151.5" font-family="Helvetica,sans-Serif" font-size="10.00">IBlackjackPlayerStrategy</text>
<polyline fill="none" stroke="black" points="28,-144.5 154,-144.5 "/>
<text text-anchor="middle" x="91" y="-132.5" font-family="Helvetica,sans-Serif" font-size="10.00"> </text>
<polyline fill="none" stroke="black" points="28,-125.5 154,-125.5 "/>
<text text-anchor="start" x="36" y="-113.5" font-family="Helvetica,sans-Serif" font-size="10.00">+ Play()</text>
</a>
</g>
<!-- Node2&#45;&gt;Node1 -->
<g id="edge2" class="edge"><title>Node2&#45;&gt;Node1</title>
<path fill="none" stroke="midnightblue" d="M91,-96.3023C91,-87.3951 91,-77.9608 91,-69.2659"/>
<polygon fill="none" stroke="midnightblue" points="87.5001,-96.4407 91,-106.441 94.5001,-96.4408 87.5001,-96.4407"/>
</g>
</g>
</svg>
