<?xml version="1.0" encoding="UTF-8" standalone="no"?>
<!DOCTYPE svg PUBLIC "-//W3C//DTD SVG 1.1//EN"
 "http://www.w3.org/Graphics/SVG/1.1/DTD/svg11.dtd">
<!-- Generated by graphviz version 2.28.0 (20110507.0327)
 -->
<!-- Title: Games.Framework.Blackjack.Player.BlackjackPlayer Pages: 1 -->
<svg width="156pt" height="354pt"
 viewBox="0.00 0.00 156.00 354.00" xmlns="http://www.w3.org/2000/svg" xmlns:xlink="http://www.w3.org/1999/xlink">
<g id="graph1" class="graph" transform="scale(1 1) rotate(0) translate(4 350)">
<title>Games.Framework.Blackjack.Player.BlackjackPlayer</title>
<polygon fill="white" stroke="white" points="-4,5 -4,-350 153,-350 153,5 -4,5"/>
<!-- Node1 -->
<g id="node1" class="node"><title>Node1</title>
<polygon fill="#bfbfbf" stroke="black" points="0,-0.5 0,-123.5 148,-123.5 148,-0.5 0,-0.5"/>
<text text-anchor="start" x="8" y="-111.5" font-family="Helvetica,sans-Serif" font-size="10.00">Games.Framework.Blackjack.</text>
<text text-anchor="middle" x="74" y="-100.5" font-family="Helvetica,sans-Serif" font-size="10.00">Player.BlackjackPlayer</text>
<polyline fill="none" stroke="black" points="0,-93.5 148,-93.5 "/>
<text text-anchor="start" x="8" y="-81.5" font-family="Helvetica,sans-Serif" font-size="10.00">+ Strategy</text>
<text text-anchor="start" x="8" y="-70.5" font-family="Helvetica,sans-Serif" font-size="10.00">+ BlackjackHand</text>
<polyline fill="none" stroke="black" points="0,-63.5 148,-63.5 "/>
<text text-anchor="start" x="8" y="-51.5" font-family="Helvetica,sans-Serif" font-size="10.00">+ BlackjackPlayer()</text>
<text text-anchor="start" x="8" y="-40.5" font-family="Helvetica,sans-Serif" font-size="10.00">+ BlackjackPlayer()</text>
<text text-anchor="start" x="8" y="-29.5" font-family="Helvetica,sans-Serif" font-size="10.00">+ BlackjackPlayer()</text>
<text text-anchor="start" x="8" y="-18.5" font-family="Helvetica,sans-Serif" font-size="10.00">+ Play()</text>
<text text-anchor="start" x="8" y="-7.5" font-family="Helvetica,sans-Serif" font-size="10.00">+ Win()</text>
</g>
<!-- Node2 -->
<g id="node2" class="node"><title>Node2</title>
<a xlink:href="class_games_1_1_framework_1_1_player_1_1_game_player.html" target="_top" xlink:title="Represents a generic card game player. ">
<polygon fill="white" stroke="black" points="31,-160.5 31,-239.5 117,-239.5 117,-160.5 31,-160.5"/>
<text text-anchor="middle" x="74" y="-227.5" font-family="Helvetica,sans-Serif" font-size="10.00">GamePlayer</text>
<polyline fill="none" stroke="black" points="31,-220.5 117,-220.5 "/>
<text text-anchor="start" x="39" y="-208.5" font-family="Helvetica,sans-Serif" font-size="10.00">+ Hand</text>
<text text-anchor="start" x="39" y="-197.5" font-family="Helvetica,sans-Serif" font-size="10.00">+ Name</text>
<polyline fill="none" stroke="black" points="31,-190.5 117,-190.5 "/>
<text text-anchor="start" x="39" y="-178.5" font-family="Helvetica,sans-Serif" font-size="10.00">+ GamePlayer()</text>
<text text-anchor="start" x="39" y="-167.5" font-family="Helvetica,sans-Serif" font-size="10.00">+ GamePlayer()</text>
</a>
</g>
<!-- Node2&#45;&gt;Node1 -->
<g id="edge2" class="edge"><title>Node2&#45;&gt;Node1</title>
<path fill="none" stroke="midnightblue" d="M74,-150.144C74,-141.528 74,-132.465 74,-123.574"/>
<polygon fill="none" stroke="midnightblue" points="70.5001,-150.392 74,-160.392 77.5001,-150.392 70.5001,-150.392"/>
</g>
<!-- Node3 -->
<g id="node4" class="node"><title>Node3</title>
<a xlink:href="interface_games_1_1_framework_1_1_player_1_1_i_game_player.html" target="_top" xlink:title="Represents the generic game player interface. ">
<polygon fill="white" stroke="black" points="37.5,-277 37.5,-345 110.5,-345 110.5,-277 37.5,-277"/>
<text text-anchor="middle" x="74" y="-333" font-family="Helvetica,sans-Serif" font-size="10.00">IGamePlayer</text>
<polyline fill="none" stroke="black" points="37.5,-326 110.5,-326 "/>
<text text-anchor="start" x="45.5" y="-314" font-family="Helvetica,sans-Serif" font-size="10.00">+ Hand</text>
<text text-anchor="start" x="45.5" y="-303" font-family="Helvetica,sans-Serif" font-size="10.00">+ Name</text>
<polyline fill="none" stroke="black" points="37.5,-296 110.5,-296 "/>
<text text-anchor="middle" x="74" y="-284" font-family="Helvetica,sans-Serif" font-size="10.00"> </text>
</a>
</g>
<!-- Node3&#45;&gt;Node2 -->
<g id="edge4" class="edge"><title>Node3&#45;&gt;Node2</title>
<path fill="none" stroke="midnightblue" d="M74,-266.575C74,-257.737 74,-248.493 74,-239.827"/>
<polygon fill="none" stroke="midnightblue" points="70.5001,-266.704 74,-276.704 77.5001,-266.704 70.5001,-266.704"/>
</g>
</g>
</svg>
