<?xml version="1.0" encoding="UTF-8" standalone="no"?>
<!DOCTYPE svg PUBLIC "-//W3C//DTD SVG 1.1//EN"
 "http://www.w3.org/Graphics/SVG/1.1/DTD/svg11.dtd">
<!-- Generated by graphviz version 2.28.0 (20110507.0327)
 -->
<!-- Title: Games.Framework.Blackjack.Player.BlackjackPlayerStrategyFactory Pages: 1 -->
<svg width="162pt" height="216pt"
 viewBox="0.00 0.00 162.00 216.00" xmlns="http://www.w3.org/2000/svg" xmlns:xlink="http://www.w3.org/1999/xlink">
<g id="graph1" class="graph" transform="scale(1 1) rotate(0) translate(4 212)">
<title>Games.Framework.Blackjack.Player.BlackjackPlayerStrategyFactory</title>
<polygon fill="white" stroke="white" points="-4,5 -4,-212 159,-212 159,5 -4,5"/>
<!-- Node1 -->
<g id="node1" class="node"><title>Node1</title>
<polygon fill="#bfbfbf" stroke="black" points="-0.5,-1 -0.5,-91 154.5,-91 154.5,-1 -0.5,-1"/>
<text text-anchor="start" x="7.5" y="-79" font-family="Helvetica,sans-Serif" font-size="10.00">Games.Framework.Blackjack.</text>
<text text-anchor="start" x="7.5" y="-68" font-family="Helvetica,sans-Serif" font-size="10.00">Player.BlackjackPlayerStrategy</text>
<text text-anchor="middle" x="77" y="-57" font-family="Helvetica,sans-Serif" font-size="10.00">Factory</text>
<polyline fill="none" stroke="black" points="-0.5,-50 154.5,-50 "/>
<text text-anchor="middle" x="77" y="-38" font-family="Helvetica,sans-Serif" font-size="10.00"> </text>
<polyline fill="none" stroke="black" points="-0.5,-31 154.5,-31 "/>
<text text-anchor="start" x="7.5" y="-19" font-family="Helvetica,sans-Serif" font-size="10.00">+ GetHumanPlayerStrategy()</text>
<text text-anchor="start" x="7.5" y="-8" font-family="Helvetica,sans-Serif" font-size="10.00">+ GetDealerPlayerStrategy()</text>
</g>
<!-- Node2 -->
<g id="node2" class="node"><title>Node2</title>
<a xlink:title="Represents the generic Blackjack player factory. ">
<polygon fill="white" stroke="#bfbfbf" points="5.5,-128.5 5.5,-207.5 148.5,-207.5 148.5,-128.5 5.5,-128.5"/>
<text text-anchor="start" x="13.5" y="-195.5" font-family="Helvetica,sans-Serif" font-size="10.00">IBlackjackPlayerStrategy</text>
<text text-anchor="middle" x="77" y="-184.5" font-family="Helvetica,sans-Serif" font-size="10.00">Factory</text>
<polyline fill="none" stroke="#bfbfbf" points="5.5,-177.5 148.5,-177.5 "/>
<text text-anchor="middle" x="77" y="-165.5" font-family="Helvetica,sans-Serif" font-size="10.00"> </text>
<polyline fill="none" stroke="#bfbfbf" points="5.5,-158.5 148.5,-158.5 "/>
<text text-anchor="start" x="13.5" y="-146.5" font-family="Helvetica,sans-Serif" font-size="10.00">+ GetHumanPlayerStrategy()</text>
<text text-anchor="start" x="13.5" y="-135.5" font-family="Helvetica,sans-Serif" font-size="10.00">+ GetDealerPlayerStrategy()</text>
</a>
</g>
<!-- Node2&#45;&gt;Node1 -->
<g id="edge2" class="edge"><title>Node2&#45;&gt;Node1</title>
<path fill="none" stroke="midnightblue" d="M77,-118.176C77,-109.318 77,-100.123 77,-91.4012"/>
<polygon fill="none" stroke="midnightblue" points="73.5001,-118.371 77,-128.371 80.5001,-118.371 73.5001,-118.371"/>
</g>
</g>
</svg>
