<?xml version="1.0" encoding="UTF-8" standalone="no"?>
<!DOCTYPE svg PUBLIC "-//W3C//DTD SVG 1.1//EN"
 "http://www.w3.org/Graphics/SVG/1.1/DTD/svg11.dtd">
<!-- Generated by graphviz version 2.28.0 (20110507.0327)
 -->
<!-- Title: Games.Framework.Blackjack.BlackjackPlayCommand Pages: 1 -->
<svg width="288pt" height="326pt"
 viewBox="0.00 0.00 288.00 326.00" xmlns="http://www.w3.org/2000/svg" xmlns:xlink="http://www.w3.org/1999/xlink">
<g id="graph1" class="graph" transform="scale(1 1) rotate(0) translate(4 322)">
<title>Games.Framework.Blackjack.BlackjackPlayCommand</title>
<polygon fill="white" stroke="white" points="-4,5 -4,-322 285,-322 285,5 -4,5"/>
<!-- Node1 -->
<g id="node1" class="node"><title>Node1</title>
<polygon fill="#bfbfbf" stroke="black" points="114,-1 114,-91 262,-91 262,-1 114,-1"/>
<text text-anchor="start" x="122" y="-79" font-family="Helvetica,sans-Serif" font-size="10.00">Games.Framework.Blackjack.</text>
<text text-anchor="middle" x="188" y="-68" font-family="Helvetica,sans-Serif" font-size="10.00">BlackjackPlayCommand</text>
<polyline fill="none" stroke="black" points="114,-61 262,-61 "/>
<text text-anchor="start" x="122" y="-49" font-family="Helvetica,sans-Serif" font-size="10.00">+ Player</text>
<text text-anchor="start" x="122" y="-38" font-family="Helvetica,sans-Serif" font-size="10.00">+ PlayerDecision</text>
<polyline fill="none" stroke="black" points="114,-31 262,-31 "/>
<text text-anchor="start" x="122" y="-19" font-family="Helvetica,sans-Serif" font-size="10.00">+ BlackjackPlayCommand()</text>
<text text-anchor="start" x="122" y="-8" font-family="Helvetica,sans-Serif" font-size="10.00">+ Execute()</text>
</g>
<!-- Node2 -->
<g id="node2" class="node"><title>Node2</title>
<a xlink:href="class_games_1_1_framework_1_1_command.html" target="_top" xlink:title="Represents an abstract command used to implement Command design pattern. ">
<polygon fill="white" stroke="black" points="62.5,-131 62.5,-199 137.5,-199 137.5,-131 62.5,-131"/>
<text text-anchor="middle" x="100" y="-187" font-family="Helvetica,sans-Serif" font-size="10.00">Command</text>
<polyline fill="none" stroke="black" points="62.5,-180 137.5,-180 "/>
<text text-anchor="middle" x="100" y="-168" font-family="Helvetica,sans-Serif" font-size="10.00"> </text>
<polyline fill="none" stroke="black" points="62.5,-161 137.5,-161 "/>
<text text-anchor="start" x="70.5" y="-149" font-family="Helvetica,sans-Serif" font-size="10.00">+ Execute()</text>
<text text-anchor="start" x="70.5" y="-138" font-family="Helvetica,sans-Serif" font-size="10.00"># Command()</text>
</a>
</g>
<!-- Node2&#45;&gt;Node1 -->
<g id="edge2" class="edge"><title>Node2&#45;&gt;Node1</title>
<path fill="none" stroke="midnightblue" d="M130.999,-122.785C138.683,-112.569 146.948,-101.581 154.735,-91.2275"/>
<polygon fill="none" stroke="midnightblue" points="128.196,-120.69 124.982,-130.785 133.79,-124.897 128.196,-120.69"/>
</g>
<!-- Node3 -->
<g id="node4" class="node"><title>Node3</title>
<a xlink:href="interface_games_1_1_framework_1_1_i_command.html" target="_top" xlink:title="The command interface used to implement Command pattern. ">
<polygon fill="white" stroke="black" points="0,-254.5 0,-311.5 68,-311.5 68,-254.5 0,-254.5"/>
<text text-anchor="middle" x="34" y="-299.5" font-family="Helvetica,sans-Serif" font-size="10.00">ICommand</text>
<polyline fill="none" stroke="black" points="0,-292.5 68,-292.5 "/>
<text text-anchor="middle" x="34" y="-280.5" font-family="Helvetica,sans-Serif" font-size="10.00"> </text>
<polyline fill="none" stroke="black" points="0,-273.5 68,-273.5 "/>
<text text-anchor="start" x="8" y="-261.5" font-family="Helvetica,sans-Serif" font-size="10.00">+ Execute()</text>
</a>
</g>
<!-- Node3&#45;&gt;Node2 -->
<g id="edge4" class="edge"><title>Node3&#45;&gt;Node2</title>
<path fill="none" stroke="midnightblue" d="M54.8503,-245.354C63.2379,-230.612 72.8427,-213.731 81.0311,-199.339"/>
<polygon fill="none" stroke="midnightblue" points="51.7119,-243.793 49.8086,-254.215 57.796,-247.254 51.7119,-243.793"/>
</g>
<!-- Node4 -->
<g id="node6" class="node"><title>Node4</title>
<a xlink:href="interface_games_1_1_framework_1_1_blackjack_1_1_i_blackjack_play_command_receiver.html" target="_top" xlink:title="Represents a generic Blackjack play command receiver. ">
<polygon fill="white" stroke="black" points="86,-249 86,-317 248,-317 248,-249 86,-249"/>
<text text-anchor="start" x="94" y="-305" font-family="Helvetica,sans-Serif" font-size="10.00">Games.Framework.Blackjack.</text>
<text text-anchor="middle" x="167" y="-294" font-family="Helvetica,sans-Serif" font-size="10.00">IBlackjackPlayCommandReceiver</text>
<polyline fill="none" stroke="black" points="86,-287 248,-287 "/>
<text text-anchor="middle" x="167" y="-275" font-family="Helvetica,sans-Serif" font-size="10.00"> </text>
<polyline fill="none" stroke="black" points="86,-268 248,-268 "/>
<text text-anchor="start" x="94" y="-256" font-family="Helvetica,sans-Serif" font-size="10.00">+ GetPlayDecision()</text>
</a>
</g>
<!-- Node4&#45;&gt;Node2 -->
<g id="edge6" class="edge"><title>Node4&#45;&gt;Node2</title>
<path fill="none" stroke="#404040" d="M147.8,-248.759C140.792,-236.625 132.755,-222.71 125.296,-209.797"/>
<polygon fill="none" stroke="#404040" points="125.204,-209.637 118.74,-206.442 119.202,-199.246 125.667,-202.441 125.204,-209.637"/>
<text text-anchor="middle" x="190.5" y="-221.5" font-family="Helvetica,sans-Serif" font-size="10.00"> #PlayCommandReceiver</text>
</g>
<!-- Node5 -->
<g id="node8" class="node"><title>Node5</title>
<a xlink:href="interface_games_1_1_framework_1_1_blackjack_1_1_i_blackjack_play_command.html" target="_top" xlink:title="Represents a generic interface for Blackjack play commands. ">
<polygon fill="white" stroke="black" points="155.5,-131 155.5,-199 280.5,-199 280.5,-131 155.5,-131"/>
<text text-anchor="middle" x="218" y="-187" font-family="Helvetica,sans-Serif" font-size="10.00">IBlackjackPlayCommand</text>
<polyline fill="none" stroke="black" points="155.5,-180 280.5,-180 "/>
<text text-anchor="start" x="163.5" y="-168" font-family="Helvetica,sans-Serif" font-size="10.00">+ Player</text>
<text text-anchor="start" x="163.5" y="-157" font-family="Helvetica,sans-Serif" font-size="10.00">+ PlayerDecision</text>
<polyline fill="none" stroke="black" points="155.5,-150 280.5,-150 "/>
<text text-anchor="start" x="163.5" y="-138" font-family="Helvetica,sans-Serif" font-size="10.00">+ Execute()</text>
</a>
</g>
<!-- Node5&#45;&gt;Node1 -->
<g id="edge8" class="edge"><title>Node5&#45;&gt;Node1</title>
<path fill="none" stroke="midnightblue" d="M206.963,-120.957C204.478,-111.266 201.837,-100.966 199.34,-91.2275"/>
<polygon fill="none" stroke="midnightblue" points="203.609,-121.968 209.483,-130.785 210.39,-120.229 203.609,-121.968"/>
</g>
</g>
</svg>
