<?xml version="1.0" encoding="UTF-8" standalone="no"?>
<!DOCTYPE svg PUBLIC "-//W3C//DTD SVG 1.1//EN"
 "http://www.w3.org/Graphics/SVG/1.1/DTD/svg11.dtd">
<!-- Generated by graphviz version 2.28.0 (20110507.0327)
 -->
<!-- Title: D:/Curriculum/Interviews/Tests/Games/Games.Tests/Cards Pages: 1 -->
<svg width="186pt" height="111pt"
 viewBox="0.00 0.00 186.00 111.00" xmlns="http://www.w3.org/2000/svg" xmlns:xlink="http://www.w3.org/1999/xlink">
<g id="graph1" class="graph" transform="scale(1 1) rotate(0) translate(4 107)">
<title>D:/Curriculum/Interviews/Tests/Games/Games.Tests/Cards</title>
<polygon fill="white" stroke="white" points="-4,5 -4,-107 183,-107 183,5 -4,5"/>
<g id="graph2" class="cluster"><title>clusterdir_407e86c3dd4b736a0e30cc00cc2a2720</title>
<a xlink:href="dir_407e86c3dd4b736a0e30cc00cc2a2720.html" target="_top" xlink:title="Games.Tests">
<polygon fill="#ddddee" stroke="black" points="8,-8 8,-95 170,-95 170,-8 8,-8"/>
<text text-anchor="middle" x="89" y="-83" font-family="Helvetica,sans-Serif" font-size="10.00">Games.Tests</text>
</a>
</g>
<g id="graph3" class="cluster"><title>clusterdir_0449b6b1bd13616bebea9e4bf83b5a4f</title>
<a xlink:href="dir_0449b6b1bd13616bebea9e4bf83b5a4f.html" target="_top">
<polygon fill="#eeeeff" stroke="black" points="16,-16 16,-68 162,-68 162,-16 16,-16"/>
</a>
</g>
<!-- dir_0449b6b1bd13616bebea9e4bf83b5a4f -->
<g id="node3" class="node"><title>dir_0449b6b1bd13616bebea9e4bf83b5a4f</title>
<text text-anchor="middle" x="127" y="-39.5" font-family="Helvetica,sans-Serif" font-size="10.00">Cards</text>
</g>
<!-- dir_91c0747f019c18f5aa43f88f0ed999bc -->
<g id="node4" class="node"><title>dir_91c0747f019c18f5aa43f88f0ed999bc</title>
<a xlink:href="dir_91c0747f019c18f5aa43f88f0ed999bc.html" target="_top" xlink:title="Algorithm">
<polygon fill="white" stroke="black" points="82,-60 24,-60 24,-24 82,-24 82,-60"/>
<text text-anchor="middle" x="53" y="-39.5" font-family="Helvetica,sans-Serif" font-size="10.00">Algorithm</text>
</a>
</g>
</g>
</svg>
