<?xml version="1.0" encoding="UTF-8" standalone="no"?>
<!DOCTYPE svg PUBLIC "-//W3C//DTD SVG 1.1//EN"
 "http://www.w3.org/Graphics/SVG/1.1/DTD/svg11.dtd">
<!-- Generated by graphviz version 2.28.0 (20110507.0327)
 -->
<!-- Title: D:/Curriculum/Interviews/Tests/Games/Games.Framework/Properties Pages: 1 -->
<svg width="123pt" height="95pt"
 viewBox="0.00 0.00 123.00 95.00" xmlns="http://www.w3.org/2000/svg" xmlns:xlink="http://www.w3.org/1999/xlink">
<g id="graph1" class="graph" transform="scale(1 1) rotate(0) translate(4 91)">
<title>D:/Curriculum/Interviews/Tests/Games/Games.Framework/Properties</title>
<polygon fill="white" stroke="white" points="-4,5 -4,-91 120,-91 120,5 -4,5"/>
<g id="graph2" class="cluster"><title>clusterdir_26e7d9c80ab2606ed0580905ce028252</title>
<a xlink:href="dir_26e7d9c80ab2606ed0580905ce028252.html" target="_top" xlink:title="Games.Framework">
<polygon fill="#ddddee" stroke="black" points="8,-8 8,-79 107,-79 107,-8 8,-8"/>
<text text-anchor="middle" x="57.5" y="-67" font-family="Helvetica,sans-Serif" font-size="10.00">Games.Framework</text>
</a>
</g>
<!-- dir_acf0f6fc7c71b3b2a72d03efda0501d8 -->
<g id="node2" class="node"><title>dir_acf0f6fc7c71b3b2a72d03efda0501d8</title>
<a xlink:href="dir_acf0f6fc7c71b3b2a72d03efda0501d8.html" target="_top" xlink:title="Properties">
<polygon fill="#eeeeff" stroke="black" points="87.25,-52 26.75,-52 26.75,-16 87.25,-16 87.25,-52"/>
<text text-anchor="middle" x="57" y="-31.5" font-family="Helvetica,sans-Serif" font-size="10.00">Properties</text>
</a>
</g>
</g>
</svg>
