<?xml version="1.0" encoding="UTF-8" standalone="no"?>
<!DOCTYPE svg PUBLIC "-//W3C//DTD SVG 1.1//EN"
 "http://www.w3.org/Graphics/SVG/1.1/DTD/svg11.dtd">
<!-- Generated by graphviz version 2.28.0 (20110507.0327)
 -->
<!-- Title: D:/Curriculum/Interviews/Tests/Games/Games.Tests/Blackjack/Player Pages: 1 -->
<svg width="94pt" height="95pt"
 viewBox="0.00 0.00 94.00 95.00" xmlns="http://www.w3.org/2000/svg" xmlns:xlink="http://www.w3.org/1999/xlink">
<g id="graph1" class="graph" transform="scale(1 1) rotate(0) translate(4 91)">
<title>D:/Curriculum/Interviews/Tests/Games/Games.Tests/Blackjack/Player</title>
<polygon fill="white" stroke="white" points="-4,5 -4,-91 91,-91 91,5 -4,5"/>
<g id="graph2" class="cluster"><title>clusterdir_28079f3406ee74a15eec3fa896829aec</title>
<a xlink:href="dir_28079f3406ee74a15eec3fa896829aec.html" target="_top" xlink:title="Blackjack">
<polygon fill="#ddddee" stroke="black" points="8,-8 8,-79 78,-79 78,-8 8,-8"/>
<text text-anchor="middle" x="43" y="-67" font-family="Helvetica,sans-Serif" font-size="10.00">Blackjack</text>
</a>
</g>
<!-- dir_561c47294eff1218917042dc4b63bac7 -->
<g id="node2" class="node"><title>dir_561c47294eff1218917042dc4b63bac7</title>
<a xlink:href="dir_561c47294eff1218917042dc4b63bac7.html" target="_top" xlink:title="Player">
<polygon fill="#eeeeff" stroke="black" points="70,-52 16,-52 16,-16 70,-16 70,-52"/>
<text text-anchor="middle" x="43" y="-31.5" font-family="Helvetica,sans-Serif" font-size="10.00">Player</text>
</a>
</g>
</g>
</svg>
