<?xml version="1.0" encoding="UTF-8" standalone="no"?>
<!DOCTYPE svg PUBLIC "-//W3C//DTD SVG 1.1//EN"
 "http://www.w3.org/Graphics/SVG/1.1/DTD/svg11.dtd">
<!-- Generated by graphviz version 2.28.0 (20110507.0327)
 -->
<!-- Title: D:/Curriculum/Interviews/Tests/Games/Games.ConsoleGUI/Properties Pages: 1 -->
<svg width="127pt" height="95pt"
 viewBox="0.00 0.00 127.00 95.00" xmlns="http://www.w3.org/2000/svg" xmlns:xlink="http://www.w3.org/1999/xlink">
<g id="graph1" class="graph" transform="scale(1 1) rotate(0) translate(4 91)">
<title>D:/Curriculum/Interviews/Tests/Games/Games.ConsoleGUI/Properties</title>
<polygon fill="white" stroke="white" points="-4,5 -4,-91 124,-91 124,5 -4,5"/>
<g id="graph2" class="cluster"><title>clusterdir_d73c228822e0d8dd4c6fc01d2e74fdfe</title>
<a xlink:href="dir_d73c228822e0d8dd4c6fc01d2e74fdfe.html" target="_top" xlink:title="Games.ConsoleGUI">
<polygon fill="#ddddee" stroke="black" points="8,-8 8,-79 111,-79 111,-8 8,-8"/>
<text text-anchor="middle" x="59.5" y="-67" font-family="Helvetica,sans-Serif" font-size="10.00">Games.ConsoleGUI</text>
</a>
</g>
<!-- dir_f0c7bf56517885047310c38e285f78ee -->
<g id="node2" class="node"><title>dir_f0c7bf56517885047310c38e285f78ee</title>
<a xlink:href="dir_f0c7bf56517885047310c38e285f78ee.html" target="_top" xlink:title="Properties">
<polygon fill="#eeeeff" stroke="black" points="89.25,-52 28.75,-52 28.75,-16 89.25,-16 89.25,-52"/>
<text text-anchor="middle" x="59" y="-31.5" font-family="Helvetica,sans-Serif" font-size="10.00">Properties</text>
</a>
</g>
</g>
</svg>
