<?xml version="1.0" encoding="UTF-8" standalone="no"?>
<!DOCTYPE svg PUBLIC "-//W3C//DTD SVG 1.1//EN"
 "http://www.w3.org/Graphics/SVG/1.1/DTD/svg11.dtd">
<!-- Generated by graphviz version 2.28.0 (20110507.0327)
 -->
<!-- Title: Graphical Class Hierarchy Pages: 1 -->
<svg width="388pt" height="87pt"
 viewBox="0.00 0.00 388.00 87.00" xmlns="http://www.w3.org/2000/svg" xmlns:xlink="http://www.w3.org/1999/xlink">
<g id="graph1" class="graph" transform="scale(1 1) rotate(0) translate(4 83)">
<title>Graphical Class Hierarchy</title>
<polygon fill="white" stroke="white" points="-4,5 -4,-83 385,-83 385,5 -4,5"/>
<!-- Node1 -->
<g id="node1" class="node"><title>Node1</title>
<a xlink:href="interface_games_1_1_framework_1_1_blackjack_1_1_player_1_1_i_blackjack_player_strategy.html" target="_top" xlink:title="Represents the generic interface for players strategies. ">
<polygon fill="white" stroke="black" points="0.5,-24 0.5,-54 157.5,-54 157.5,-24 0.5,-24"/>
<text text-anchor="start" x="8.5" y="-42" font-family="Helvetica,sans-Serif" font-size="10.00">Games.Framework.Blackjack.</text>
<text text-anchor="middle" x="79" y="-31" font-family="Helvetica,sans-Serif" font-size="10.00">Player.IBlackjackPlayerStrategy</text>
</a>
</g>
<!-- Node2 -->
<g id="node3" class="node"><title>Node2</title>
<a xlink:href="class_games_1_1_framework_1_1_blackjack_1_1_player_1_1_dealer_blackjack_player_strategy.html" target="_top" xlink:title="Represents a dealer player stategy. ">
<polygon fill="white" stroke="black" points="196,-49 196,-79 378,-79 378,-49 196,-49"/>
<text text-anchor="start" x="204" y="-67" font-family="Helvetica,sans-Serif" font-size="10.00">Games.Framework.Blackjack.</text>
<text text-anchor="middle" x="287" y="-56" font-family="Helvetica,sans-Serif" font-size="10.00">Player.DealerBlackjackPlayerStrategy</text>
</a>
</g>
<!-- Node1&#45;&gt;Node2 -->
<g id="edge2" class="edge"><title>Node1&#45;&gt;Node2</title>
<path fill="none" stroke="midnightblue" d="M167.589,-49.6298C176.884,-50.7577 186.349,-51.9065 195.674,-53.0381"/>
<polygon fill="midnightblue" stroke="midnightblue" points="167.935,-46.1461 157.586,-48.4158 167.092,-53.0952 167.935,-46.1461"/>
</g>
<!-- Node3 -->
<g id="node5" class="node"><title>Node3</title>
<a xlink:href="class_games_1_1_framework_1_1_blackjack_1_1_player_1_1_human_blackjack_player_strategy.html" target="_top" xlink:title="Represents the human player strategy. ">
<polygon fill="white" stroke="black" points="194.5,-0 194.5,-30 379.5,-30 379.5,-0 194.5,-0"/>
<text text-anchor="start" x="202.5" y="-18" font-family="Helvetica,sans-Serif" font-size="10.00">Games.Framework.Blackjack.</text>
<text text-anchor="middle" x="287" y="-7" font-family="Helvetica,sans-Serif" font-size="10.00">Player.HumanBlackjackPlayerStrategy</text>
</a>
</g>
<!-- Node1&#45;&gt;Node3 -->
<g id="edge4" class="edge"><title>Node1&#45;&gt;Node3</title>
<path fill="none" stroke="midnightblue" d="M167.791,-28.7719C176.556,-27.7508 185.471,-26.7121 194.275,-25.6864"/>
<polygon fill="midnightblue" stroke="midnightblue" points="167.114,-25.327 157.586,-29.9608 167.924,-32.28 167.114,-25.327"/>
</g>
</g>
</svg>
