<?xml version="1.0" encoding="UTF-8" standalone="no"?>
<!DOCTYPE svg PUBLIC "-//W3C//DTD SVG 1.1//EN"
 "http://www.w3.org/Graphics/SVG/1.1/DTD/svg11.dtd">
<!-- Generated by graphviz version 2.28.0 (20110507.0327)
 -->
<!-- Title: Games.Framework.Blackjack.Player.IBlackjackPlayerStrategy Pages: 1 -->
<svg width="393pt" height="194pt"
 viewBox="0.00 0.00 393.00 194.00" xmlns="http://www.w3.org/2000/svg" xmlns:xlink="http://www.w3.org/1999/xlink">
<g id="graph1" class="graph" transform="scale(1 1) rotate(0) translate(4 190)">
<title>Games.Framework.Blackjack.Player.IBlackjackPlayerStrategy</title>
<polygon fill="white" stroke="white" points="-4,5 -4,-190 390,-190 390,5 -4,5"/>
<!-- Node1 -->
<g id="node1" class="node"><title>Node1</title>
<polygon fill="#bfbfbf" stroke="black" points="113.5,-117 113.5,-185 270.5,-185 270.5,-117 113.5,-117"/>
<text text-anchor="start" x="121.5" y="-173" font-family="Helvetica,sans-Serif" font-size="10.00">Games.Framework.Blackjack.</text>
<text text-anchor="middle" x="192" y="-162" font-family="Helvetica,sans-Serif" font-size="10.00">Player.IBlackjackPlayerStrategy</text>
<polyline fill="none" stroke="black" points="113.5,-155 270.5,-155 "/>
<text text-anchor="middle" x="192" y="-143" font-family="Helvetica,sans-Serif" font-size="10.00"> </text>
<polyline fill="none" stroke="black" points="113.5,-136 270.5,-136 "/>
<text text-anchor="start" x="121.5" y="-124" font-family="Helvetica,sans-Serif" font-size="10.00">+ Play()</text>
</g>
<!-- Node2 -->
<g id="node3" class="node"><title>Node2</title>
<a xlink:href="class_games_1_1_framework_1_1_blackjack_1_1_player_1_1_dealer_blackjack_player_strategy.html" target="_top" xlink:title="Represents a dealer player stategy. ">
<polygon fill="white" stroke="black" points="0,-6 0,-74 182,-74 182,-6 0,-6"/>
<text text-anchor="start" x="8" y="-62" font-family="Helvetica,sans-Serif" font-size="10.00">Games.Framework.Blackjack.</text>
<text text-anchor="middle" x="91" y="-51" font-family="Helvetica,sans-Serif" font-size="10.00">Player.DealerBlackjackPlayerStrategy</text>
<polyline fill="none" stroke="black" points="0,-44 182,-44 "/>
<text text-anchor="middle" x="91" y="-32" font-family="Helvetica,sans-Serif" font-size="10.00"> </text>
<polyline fill="none" stroke="black" points="0,-25 182,-25 "/>
<text text-anchor="start" x="8" y="-13" font-family="Helvetica,sans-Serif" font-size="10.00">+ Play()</text>
</a>
</g>
<!-- Node1&#45;&gt;Node2 -->
<g id="edge2" class="edge"><title>Node1&#45;&gt;Node2</title>
<path fill="none" stroke="midnightblue" d="M154.23,-109.238C143.489,-97.6468 131.926,-85.1681 121.663,-74.092"/>
<polygon fill="none" stroke="midnightblue" points="151.784,-111.748 161.148,-116.704 156.918,-106.99 151.784,-111.748"/>
</g>
<!-- Node3 -->
<g id="node5" class="node"><title>Node3</title>
<a xlink:href="class_games_1_1_framework_1_1_blackjack_1_1_player_1_1_human_blackjack_player_strategy.html" target="_top" xlink:title="Represents the human player strategy. ">
<polygon fill="white" stroke="black" points="200.5,-0.5 200.5,-79.5 385.5,-79.5 385.5,-0.5 200.5,-0.5"/>
<text text-anchor="start" x="208.5" y="-67.5" font-family="Helvetica,sans-Serif" font-size="10.00">Games.Framework.Blackjack.</text>
<text text-anchor="middle" x="293" y="-56.5" font-family="Helvetica,sans-Serif" font-size="10.00">Player.HumanBlackjackPlayerStrategy</text>
<polyline fill="none" stroke="black" points="200.5,-49.5 385.5,-49.5 "/>
<text text-anchor="middle" x="293" y="-37.5" font-family="Helvetica,sans-Serif" font-size="10.00"> </text>
<polyline fill="none" stroke="black" points="200.5,-30.5 385.5,-30.5 "/>
<text text-anchor="start" x="208.5" y="-18.5" font-family="Helvetica,sans-Serif" font-size="10.00">+ HumanBlackjackPlayerStrategy()</text>
<text text-anchor="start" x="208.5" y="-7.5" font-family="Helvetica,sans-Serif" font-size="10.00">+ Play()</text>
</a>
</g>
<!-- Node1&#45;&gt;Node3 -->
<g id="edge4" class="edge"><title>Node1&#45;&gt;Node3</title>
<path fill="none" stroke="midnightblue" d="M229.847,-109.156C238.747,-99.5507 248.207,-89.3409 257.022,-79.8274"/>
<polygon fill="none" stroke="midnightblue" points="227.082,-106.99 222.852,-116.704 232.216,-111.748 227.082,-106.99"/>
</g>
</g>
</svg>
